src_perf/compare/compare.vcd
$date
	Mon Oct 11 21:07:33 2021
$end
$version
	Icarus Verilog
$end
$timescale
	100ps
$end
$scope module test_bench $end
$var wire 1 ! reset $end
$var wire 16 " number1 [15:0] $end
$var wire 16 # number0 [15:0] $end
$var wire 3 $ compare_var [2:0] $end
$var wire 1 % clk $end
$scope module COND $end
$var wire 1 ! reset $end
$var wire 16 & number1 [15:0] $end
$var wire 16 ' number0 [15:0] $end
$var wire 1 % clk $end
$var reg 3 ( compare_var [2:0] $end
$upscope $end
$scope module TEST $end
$var wire 3 ) compare_var [2:0] $end
$var reg 1 % clk $end
$var reg 16 * number0 [15:0] $end
$var reg 16 + number1 [15:0] $end
$var reg 1 ! reset $end
$upscope $end
$upscope $end
$enddefinitions $end
#0
$dumpvars
bx +
bx *
bx )
bx (
bx '
bx &
0%
bx $
bx #
bx "
0!
$end
#20
1%
#40
0%
#60
1!
1%
#80
0%
#100
b100 $
b100 (
b100 )
b10 "
b10 &
b10 +
b1111000 #
b1111000 '
b1111000 *
1%
#120
0%
#140
1%
#160
0%
#180
b10011 "
b10011 &
b10011 +
b10011 #
b10011 '
b10011 *
1%
#200
0%
#220
b10 $
b10 (
b10 )
1%
#240
0%
#260
b1111000 "
b1111000 &
b1111000 +
b10 #
b10 '
b10 *
1%
#280
0%
#300
b1 $
b1 (
b1 )
1%
#320
0%
#340
b10010111100 "
b10010111100 &
b10010111100 +
b1000110110111 #
b1000110110111 '
b1000110110111 *
1%
#360
0%
#380
b100 $
b100 (
b100 )
1%
