src_perf/perf_sys/perf_sys.vcd
$date
	Thu Jul 15 16:14:14 2021
$end
$version
	Icarus Verilog
$end
$timescale
	100ps
$end
$scope module test_bench $end
$var wire 16 ! target [15:0] $end
$var wire 1 " start $end
$var wire 1 # reset $end
$var wire 8 $ nonce3 [7:0] $end
$var wire 8 % nonce2 [7:0] $end
$var wire 8 & nonce1 [7:0] $end
$var wire 8 ' nonce0 [7:0] $end
$var wire 1 ( finish $end
$var wire 1 ) clk $end
$var wire 8 * block9 [7:0] $end
$var wire 8 + block8 [7:0] $end
$var wire 8 , block7 [7:0] $end
$var wire 8 - block6 [7:0] $end
$var wire 8 . block5 [7:0] $end
$var wire 8 / block4 [7:0] $end
$var wire 8 0 block3 [7:0] $end
$var wire 8 1 block2 [7:0] $end
$var wire 8 2 block11 [7:0] $end
$var wire 8 3 block10 [7:0] $end
$var wire 8 4 block1 [7:0] $end
$var wire 8 5 block0 [7:0] $end
$scope module COND $end
$var wire 1 6 validity_reg_2 $end
$var wire 1 7 validity_reg_1 $end
$var wire 1 8 validity_reg_0 $end
$var wire 16 9 target [15:0] $end
$var wire 1 " start $end
$var wire 1 # reset $end
$var wire 8 : nonce_2_3 [7:0] $end
$var wire 8 ; nonce_2_2 [7:0] $end
$var wire 8 < nonce_2_1 [7:0] $end
$var wire 8 = nonce_2_0 [7:0] $end
$var wire 8 > nonce_1_3 [7:0] $end
$var wire 8 ? nonce_1_2 [7:0] $end
$var wire 8 @ nonce_1_1 [7:0] $end
$var wire 8 A nonce_1_0 [7:0] $end
$var wire 8 B nonce_0_3 [7:0] $end
$var wire 8 C nonce_0_2 [7:0] $end
$var wire 8 D nonce_0_1 [7:0] $end
$var wire 8 E nonce_0_0 [7:0] $end
$var wire 8 F hash_array2_2 [7:0] $end
$var wire 8 G hash_array2_1 [7:0] $end
$var wire 8 H hash_array2_0 [7:0] $end
$var wire 8 I hash_array1_2 [7:0] $end
$var wire 8 J hash_array1_1 [7:0] $end
$var wire 8 K hash_array1_0 [7:0] $end
$var wire 8 L hash_array0_2 [7:0] $end
$var wire 8 M hash_array0_1 [7:0] $end
$var wire 8 N hash_array0_0 [7:0] $end
$var wire 1 O fail $end
$var wire 16 P current_loop_actualize [15:0] $end
$var wire 3 Q compare_var2_1 [2:0] $end
$var wire 3 R compare_var2_0 [2:0] $end
$var wire 3 S compare_var1_1 [2:0] $end
$var wire 3 T compare_var1_0 [2:0] $end
$var wire 3 U compare_var0_1 [2:0] $end
$var wire 3 V compare_var0_0 [2:0] $end
$var wire 1 ) clk $end
$var wire 8 W block9 [7:0] $end
$var wire 8 X block8 [7:0] $end
$var wire 8 Y block7 [7:0] $end
$var wire 8 Z block6 [7:0] $end
$var wire 8 [ block5 [7:0] $end
$var wire 8 \ block4 [7:0] $end
$var wire 8 ] block3 [7:0] $end
$var wire 8 ^ block2 [7:0] $end
$var wire 8 _ block11 [7:0] $end
$var wire 8 ` block10 [7:0] $end
$var wire 8 a block1 [7:0] $end
$var wire 8 b block0 [7:0] $end
$var reg 8 c counter [7:0] $end
$var reg 8 d counter0 [7:0] $end
$var reg 8 e counter1 [7:0] $end
$var reg 1 ( finish $end
$var reg 1 f invalid_nonce $end
$var reg 16 g loop_variable [15:0] $end
$var reg 8 h nonce0 [7:0] $end
$var reg 8 i nonce0_first_number [7:0] $end
$var reg 8 j nonce0_second_number [7:0] $end
$var reg 8 k nonce1 [7:0] $end
$var reg 8 l nonce1_first_number [7:0] $end
$var reg 8 m nonce1_second_number [7:0] $end
$var reg 8 n nonce2 [7:0] $end
$var reg 8 o nonce2_first_number [7:0] $end
$var reg 8 p nonce2_second_number [7:0] $end
$var reg 8 q nonce3 [7:0] $end
$var reg 1 r nonce_ready $end
$var reg 1 s stop $end
$var reg 1 t validity_reg $end
$scope module compare_hash0_0 $end
$var wire 16 u number0 [15:0] $end
$var wire 1 # reset $end
$var wire 16 v number1 [15:0] $end
$var wire 1 ) clk $end
$var reg 3 w compare_var [2:0] $end
$upscope $end
$scope module compare_hash0_1 $end
$var wire 16 x number0 [15:0] $end
$var wire 1 # reset $end
$var wire 16 y number1 [15:0] $end
$var wire 1 ) clk $end
$var reg 3 z compare_var [2:0] $end
$upscope $end
$scope module compare_hash1_0 $end
$var wire 16 { number0 [15:0] $end
$var wire 1 # reset $end
$var wire 16 | number1 [15:0] $end
$var wire 1 ) clk $end
$var reg 3 } compare_var [2:0] $end
$upscope $end
$scope module compare_hash1_1 $end
$var wire 16 ~ number0 [15:0] $end
$var wire 1 # reset $end
$var wire 16 !" number1 [15:0] $end
$var wire 1 ) clk $end
$var reg 3 "" compare_var [2:0] $end
$upscope $end
$scope module compare_hash2_0 $end
$var wire 16 #" number0 [15:0] $end
$var wire 1 # reset $end
$var wire 16 $" number1 [15:0] $end
$var wire 1 ) clk $end
$var reg 3 %" compare_var [2:0] $end
$upscope $end
$scope module compare_hash2_1 $end
$var wire 16 &" number0 [15:0] $end
$var wire 1 # reset $end
$var wire 16 '" number1 [15:0] $end
$var wire 1 ) clk $end
$var reg 3 (" compare_var [2:0] $end
$upscope $end
$scope module loop_limit_inst $end
$var wire 16 )" current_loop [15:0] $end
$var wire 1 s stop $end
$var wire 1 # reset $end
$var wire 3 *" loop_status [2:0] $end
$var wire 1 ) clk $end
$var reg 16 +" current_loop_actualize [15:0] $end
$var reg 1 O fail $end
$var reg 16 ," loop_limit [15:0] $end
$scope module compare_inst $end
$var wire 16 -" number0 [15:0] $end
$var wire 16 ." number1 [15:0] $end
$var wire 1 # reset $end
$var wire 1 ) clk $end
$var reg 3 /" compare_var [2:0] $end
$upscope $end
$upscope $end
$scope module micro0 $end
$var wire 1 # reset $end
$var wire 1 ) clk $end
$var wire 8 0" array_numbers9 [7:0] $end
$var wire 8 1" array_numbers8 [7:0] $end
$var wire 8 2" array_numbers7 [7:0] $end
$var wire 8 3" array_numbers6 [7:0] $end
$var wire 8 4" array_numbers5 [7:0] $end
$var wire 8 5" array_numbers4 [7:0] $end
$var wire 8 6" array_numbers3 [7:0] $end
$var wire 8 7" array_numbers2 [7:0] $end
$var wire 8 8" array_numbers15 [7:0] $end
$var wire 8 9" array_numbers14 [7:0] $end
$var wire 8 :" array_numbers13 [7:0] $end
$var wire 8 ;" array_numbers12 [7:0] $end
$var wire 8 <" array_numbers11 [7:0] $end
$var wire 8 =" array_numbers10 [7:0] $end
$var wire 8 >" array_numbers1 [7:0] $end
$var wire 8 ?" array_numbers0 [7:0] $end
$var reg 8 @" a [7:0] $end
$var reg 1 A" a_b_c_flag $end
$var reg 8 B" b [7:0] $end
$var reg 8 C" c [7:0] $end
$var reg 6 D" counter [5:0] $end
$var reg 1 E" first_flag $end
$var reg 8 F" hash_array0 [7:0] $end
$var reg 8 G" hash_array1 [7:0] $end
$var reg 8 H" hash_array2 [7:0] $end
$var reg 8 I" hash_array_int_0 [7:0] $end
$var reg 8 J" hash_array_int_1 [7:0] $end
$var reg 8 K" hash_array_int_2 [7:0] $end
$var reg 8 L" k [7:0] $end
$var reg 1 M" k_x_flag $end
$var reg 9 N" last_flag [8:0] $end
$var reg 8 O" x [7:0] $end
$var integer 32 P" i [31:0] $end
$var integer 32 Q" j [31:0] $end
$upscope $end
$scope module micro1 $end
$var wire 1 # reset $end
$var wire 1 ) clk $end
$var wire 8 R" array_numbers9 [7:0] $end
$var wire 8 S" array_numbers8 [7:0] $end
$var wire 8 T" array_numbers7 [7:0] $end
$var wire 8 U" array_numbers6 [7:0] $end
$var wire 8 V" array_numbers5 [7:0] $end
$var wire 8 W" array_numbers4 [7:0] $end
$var wire 8 X" array_numbers3 [7:0] $end
$var wire 8 Y" array_numbers2 [7:0] $end
$var wire 8 Z" array_numbers15 [7:0] $end
$var wire 8 [" array_numbers14 [7:0] $end
$var wire 8 \" array_numbers13 [7:0] $end
$var wire 8 ]" array_numbers12 [7:0] $end
$var wire 8 ^" array_numbers11 [7:0] $end
$var wire 8 _" array_numbers10 [7:0] $end
$var wire 8 `" array_numbers1 [7:0] $end
$var wire 8 a" array_numbers0 [7:0] $end
$var reg 8 b" a [7:0] $end
$var reg 1 c" a_b_c_flag $end
$var reg 8 d" b [7:0] $end
$var reg 8 e" c [7:0] $end
$var reg 6 f" counter [5:0] $end
$var reg 1 g" first_flag $end
$var reg 8 h" hash_array0 [7:0] $end
$var reg 8 i" hash_array1 [7:0] $end
$var reg 8 j" hash_array2 [7:0] $end
$var reg 8 k" hash_array_int_0 [7:0] $end
$var reg 8 l" hash_array_int_1 [7:0] $end
$var reg 8 m" hash_array_int_2 [7:0] $end
$var reg 8 n" k [7:0] $end
$var reg 1 o" k_x_flag $end
$var reg 9 p" last_flag [8:0] $end
$var reg 8 q" x [7:0] $end
$var integer 32 r" i [31:0] $end
$var integer 32 s" j [31:0] $end
$upscope $end
$scope module micro2 $end
$var wire 1 # reset $end
$var wire 1 ) clk $end
$var wire 8 t" array_numbers9 [7:0] $end
$var wire 8 u" array_numbers8 [7:0] $end
$var wire 8 v" array_numbers7 [7:0] $end
$var wire 8 w" array_numbers6 [7:0] $end
$var wire 8 x" array_numbers5 [7:0] $end
$var wire 8 y" array_numbers4 [7:0] $end
$var wire 8 z" array_numbers3 [7:0] $end
$var wire 8 {" array_numbers2 [7:0] $end
$var wire 8 |" array_numbers15 [7:0] $end
$var wire 8 }" array_numbers14 [7:0] $end
$var wire 8 ~" array_numbers13 [7:0] $end
$var wire 8 !# array_numbers12 [7:0] $end
$var wire 8 "# array_numbers11 [7:0] $end
$var wire 8 ## array_numbers10 [7:0] $end
$var wire 8 $# array_numbers1 [7:0] $end
$var wire 8 %# array_numbers0 [7:0] $end
$var reg 8 &# a [7:0] $end
$var reg 1 '# a_b_c_flag $end
$var reg 8 (# b [7:0] $end
$var reg 8 )# c [7:0] $end
$var reg 6 *# counter [5:0] $end
$var reg 1 +# first_flag $end
$var reg 8 ,# hash_array0 [7:0] $end
$var reg 8 -# hash_array1 [7:0] $end
$var reg 8 .# hash_array2 [7:0] $end
$var reg 8 /# hash_array_int_0 [7:0] $end
$var reg 8 0# hash_array_int_1 [7:0] $end
$var reg 8 1# hash_array_int_2 [7:0] $end
$var reg 8 2# k [7:0] $end
$var reg 1 3# k_x_flag $end
$var reg 9 4# last_flag [8:0] $end
$var reg 8 5# x [7:0] $end
$var integer 32 6# i [31:0] $end
$var integer 32 7# j [31:0] $end
$upscope $end
$scope module nonce_0 $end
$var wire 1 O fail $end
$var wire 8 8# source0 [7:0] $end
$var wire 8 9# source1 [7:0] $end
$var wire 2 :# type [1:0] $end
$var wire 1 # reset $end
$var wire 1 ) clk $end
$var reg 1 ;# delay $end
$var reg 8 <# nonce_array0 [7:0] $end
$var reg 8 =# nonce_array1 [7:0] $end
$var reg 8 ># nonce_array2 [7:0] $end
$var reg 8 ?# nonce_array3 [7:0] $end
$var reg 8 @# nonce_int_0 [7:0] $end
$var reg 8 A# nonce_int_1 [7:0] $end
$var reg 8 B# nonce_int_2 [7:0] $end
$var reg 8 C# nonce_int_3 [7:0] $end
$upscope $end
$scope module nonce_1 $end
$var wire 1 O fail $end
$var wire 8 D# source0 [7:0] $end
$var wire 8 E# source1 [7:0] $end
$var wire 2 F# type [1:0] $end
$var wire 1 # reset $end
$var wire 1 ) clk $end
$var reg 1 G# delay $end
$var reg 8 H# nonce_array0 [7:0] $end
$var reg 8 I# nonce_array1 [7:0] $end
$var reg 8 J# nonce_array2 [7:0] $end
$var reg 8 K# nonce_array3 [7:0] $end
$var reg 8 L# nonce_int_0 [7:0] $end
$var reg 8 M# nonce_int_1 [7:0] $end
$var reg 8 N# nonce_int_2 [7:0] $end
$var reg 8 O# nonce_int_3 [7:0] $end
$upscope $end
$scope module nonce_2 $end
$var wire 1 O fail $end
$var wire 8 P# source0 [7:0] $end
$var wire 8 Q# source1 [7:0] $end
$var wire 2 R# type [1:0] $end
$var wire 1 # reset $end
$var wire 1 ) clk $end
$var reg 1 S# delay $end
$var reg 8 T# nonce_array0 [7:0] $end
$var reg 8 U# nonce_array1 [7:0] $end
$var reg 8 V# nonce_array2 [7:0] $end
$var reg 8 W# nonce_array3 [7:0] $end
$var reg 8 X# nonce_int_0 [7:0] $end
$var reg 8 Y# nonce_int_1 [7:0] $end
$var reg 8 Z# nonce_int_2 [7:0] $end
$var reg 8 [# nonce_int_3 [7:0] $end
$upscope $end
$scope module validity_0 $end
$var wire 3 \# input0 [2:0] $end
$var wire 3 ]# input1 [2:0] $end
$var wire 1 # reset $end
$var wire 1 ) clk $end
$var reg 1 8 validity_reg $end
$upscope $end
$scope module validity_1 $end
$var wire 3 ^# input0 [2:0] $end
$var wire 3 _# input1 [2:0] $end
$var wire 1 # reset $end
$var wire 1 ) clk $end
$var reg 1 7 validity_reg $end
$upscope $end
$scope module validity_2 $end
$var wire 3 `# input0 [2:0] $end
$var wire 3 a# input1 [2:0] $end
$var wire 1 # reset $end
$var wire 1 ) clk $end
$var reg 1 6 validity_reg $end
$upscope $end
$upscope $end
$scope module TEST $end
$var wire 1 ( finish $end
$var wire 8 b# nonce0 [7:0] $end
$var wire 8 c# nonce1 [7:0] $end
$var wire 8 d# nonce2 [7:0] $end
$var wire 8 e# nonce3 [7:0] $end
$var reg 8 f# block0 [7:0] $end
$var reg 8 g# block1 [7:0] $end
$var reg 8 h# block10 [7:0] $end
$var reg 8 i# block11 [7:0] $end
$var reg 8 j# block2 [7:0] $end
$var reg 8 k# block3 [7:0] $end
$var reg 8 l# block4 [7:0] $end
$var reg 8 m# block5 [7:0] $end
$var reg 8 n# block6 [7:0] $end
$var reg 8 o# block7 [7:0] $end
$var reg 8 p# block8 [7:0] $end
$var reg 8 q# block9 [7:0] $end
$var reg 1 ) clk $end
$var reg 1 # reset $end
$var reg 1 " start $end
$var reg 16 r# target [15:0] $end
$upscope $end
$upscope $end
$enddefinitions $end
#0
$dumpvars
bx r#
bx q#
bx p#
bx o#
bx n#
bx m#
bx l#
bx k#
bx j#
bx i#
bx h#
bx g#
bx f#
bx e#
bx d#
bx c#
bx b#
bx a#
bx `#
bx _#
bx ^#
bx ]#
bx \#
bx [#
bx Z#
bx Y#
bx X#
bx W#
bx V#
bx U#
bx T#
xS#
b10 R#
bx Q#
bx P#
bx O#
bx N#
bx M#
bx L#
bx K#
bx J#
bx I#
bx H#
xG#
b1 F#
bx E#
bx D#
bx C#
bx B#
bx A#
bx @#
bx ?#
bx >#
bx =#
bx <#
x;#
b0 :#
bx 9#
bx 8#
bx 7#
bx 6#
bx 5#
b0 4#
03#
bx 2#
bx 1#
bx 0#
bx /#
b0 .#
b0 -#
b0 ,#
0+#
b0 *#
b0 )#
b0 (#
0'#
b0 &#
bx %#
bx $#
bx ##
bx "#
bx !#
bx ~"
bx }"
bx |"
bx {"
bx z"
bx y"
bx x"
bx w"
bx v"
bx u"
bx t"
bx s"
bx r"
bx q"
b0 p"
0o"
bx n"
bx m"
bx l"
bx k"
b0 j"
b0 i"
b0 h"
0g"
b0 f"
b0 e"
b0 d"
0c"
b0 b"
bx a"
bx `"
bx _"
bx ^"
bx ]"
bx \"
bx ["
bx Z"
bx Y"
bx X"
bx W"
bx V"
bx U"
bx T"
bx S"
bx R"
bx Q"
bx P"
bx O"
b0 N"
0M"
bx L"
bx K"
bx J"
bx I"
b0 H"
b0 G"
b0 F"
0E"
b0 D"
b0 C"
b0 B"
0A"
b0 @"
bx ?"
bx >"
bx ="
bx <"
bx ;"
bx :"
bx 9"
bx 8"
bx 7"
bx 6"
bx 5"
bx 4"
bx 3"
bx 2"
bx 1"
bx 0"
bx /"
bx ."
bx -"
bx ,"
bx +"
bx *"
bx )"
bx ("
bx '"
b0 &"
bx %"
bx $"
b0 #"
bx ""
bx !"
b0 ~
bx }
bx |
b0 {
bx z
bx y
b0 x
bx w
bx v
b0 u
xt
xs
xr
bx q
bx p
bx o
bx n
bx m
bx l
bx k
bx j
bx i
bx h
bx g
xf
bx e
bx d
bx c
bx b
bx a
bx `
bx _
bx ^
bx ]
bx \
bx [
bx Z
bx Y
bx X
bx W
bx V
bx U
bx T
bx S
bx R
bx Q
bx P
xO
b0 N
b0 M
b0 L
b0 K
b0 J
b0 I
b0 H
b0 G
b0 F
bx E
bx D
bx C
bx B
bx A
bx @
bx ?
bx >
bx =
bx <
bx ;
bx :
bx 9
x8
x7
x6
bx 5
bx 4
bx 3
bx 2
bx 1
bx 0
bx /
bx .
bx -
bx ,
bx +
bx *
0)
x(
bx '
bx &
bx %
bx $
0#
x"
bx !
$end
#20
b0 B
b0 8"
b0 ?#
b0 C
b0 9"
b0 >#
b0 D
b0 :"
b0 =#
b0 E
b0 ;"
b0 <#
b0 >
b0 Z"
b0 K#
b0 ?
b0 ["
b0 J#
b0 @
b0 \"
b0 I#
b0 A
b0 ]"
b0 H#
b0 :
b0 |"
b0 W#
b0 ;
b0 }"
b0 V#
b0 <
b0 ~"
b0 U#
b0 =
b0 !#
b0 T#
08
07
06
b0 P
b0 +"
0O
0f
0s
b0 e
b0 d
b0 c
b0 g
b0 )"
b0 -"
0t
0r
0"
1)
#40
0)
#60
bx L
bx H"
b0xxxxxxxx x
bx M
bx G"
b0xxxxxxxx u
bx N
bx F"
bx O"
b10100001 L"
bx C"
bx0000 B"
bx @"
b100000 Q"
b11111110 K"
b10001001 J"
b1 I"
b100000 P"
bx I
bx j"
b0xxxxxxxx ~
bx J
bx i"
b0xxxxxxxx {
bx K
bx h"
bx q"
b10100001 n"
bx e"
bx0000 d"
bx b"
b100000 s"
b11111110 m"
b10001001 l"
b1 k"
b100000 r"
bx F
bx .#
b0xxxxxxxx &"
bx G
bx -#
b0xxxxxxxx #"
bx H
bx ,#
bx 5#
b10100001 2#
bx )#
bx0000 (#
bx &#
b100000 7#
b11111110 1#
b10001001 0#
b1 /#
b100000 6#
1#
1)
#80
0)
#100
1;#
1G#
1S#
b100 V
b100 w
b100 \#
b100 U
b100 z
b100 ]#
b100 T
b100 }
b100 ^#
b100 S
b100 ""
b100 _#
b100 R
b100 %"
b100 `#
b100 Q
b100 ("
b100 a#
b100 *"
b100 /"
b1001110001000 ,"
b1001110001000 ."
0(
b0 $
b0 q
b0 e#
b0 %
b0 n
b0 d#
b0 &
b0 k
b0 c#
b0 '
b0 h
b0 b#
1"
1)
#120
0)
#140
bx 5#
b10100001 2#
bx )#
bx0000 (#
bx &#
b100000 7#
b100000 6#
bx q"
b10100001 n"
bx e"
bx0000 d"
bx b"
b100000 s"
b100000 r"
bx O"
b10100001 L"
bx C"
bx0000 B"
bx @"
b100000 Q"
b100000 P"
1f
b1 c
1O
b1 *"
b1 /"
0S#
bx :
bx |"
bx W#
bx ;
bx }"
bx V#
bx <
bx ~"
bx U#
bx =
bx !#
bx T#
0G#
bx >
bx Z"
bx K#
bx ?
bx ["
bx J#
bx @
bx \"
bx I#
bx A
bx ]"
bx H#
0;#
bx B
bx 8"
bx ?#
bx C
bx 9"
bx >#
bx D
bx :"
bx =#
bx E
bx ;"
bx <#
1)
#160
0)
#180
b10010011 L
b10010011 H"
b111001 x
b111001 M
b111001 G"
b11001100 u
b11001100 N
b11001100 F"
b11110101 O"
b10100001 L"
b10010101 C"
b10110000 B"
b11001011 @"
b100000 Q"
b100000 P"
b10010011 I
b10010011 j"
b111001 ~
b111001 J
b111001 i"
b11001100 {
b11001100 K
b11001100 h"
b11110101 q"
b10100001 n"
b10010101 e"
b10110000 d"
b11001011 b"
b100000 s"
b100000 r"
b10010011 F
b10010011 .#
b111001 &"
b111001 G
b111001 -#
b11001100 #"
b11001100 H
b11001100 ,#
b11110101 5#
b10100001 2#
b10010101 )#
b10110000 (#
b11001011 &#
b100000 7#
b100000 6#
b0 B
b0 8"
b0 ?#
b0 C
b0 9"
b0 >#
b0 D
b0 :"
b0 =#
b0 E
b0 ;"
b0 <#
b0 >
b0 Z"
b0 K#
b0 ?
b0 ["
b0 J#
b0 @
b0 \"
b0 I#
b0 A
b0 ]"
b0 H#
b0 :
b0 |"
b0 W#
b0 ;
b0 }"
b0 V#
b0 <
b0 ~"
b0 U#
b0 =
b0 !#
b0 T#
b1 P
b1 +"
0O
1s
b10 c
b100100 2
b100100 _
b100100 <"
b100100 ^"
b100100 "#
b100100 i#
b110011 3
b110011 `
b110011 ="
b110011 _"
b110011 ##
b110011 h#
b11111 *
b11111 W
b11111 0"
b11111 R"
b11111 t"
b11111 q#
b1101011 +
b1101011 X
b1101011 1"
b1101011 S"
b1101011 u"
b1101011 p#
b1101100 ,
b1101100 Y
b1101100 2"
b1101100 T"
b1101100 v"
b1101100 o#
b10011110 -
b10011110 Z
b10011110 3"
b10011110 U"
b10011110 w"
b10011110 n#
b11001010 .
b11001010 [
b11001010 4"
b11001010 V"
b11001010 x"
b11001010 m#
b1000000 /
b1000000 \
b1000000 5"
b1000000 W"
b1000000 y"
b1000000 l#
b101111 0
b101111 ]
b101111 6"
b101111 X"
b101111 z"
b101111 k#
b10011111 1
b10011111 ^
b10011111 7"
b10011111 Y"
b10011111 {"
b10011111 j#
b1111101 4
b1111101 a
b1111101 >"
b1111101 `"
b1111101 $#
b1111101 g#
b111001 5
b111001 b
b111001 ?"
b111001 a"
b111001 %#
b111001 f#
b110010 !
b110010 9
b110010 v
b110010 y
b110010 |
b110010 !"
b110010 $"
b110010 '"
b110010 r#
1)
#200
0)
#220
0s
b11 c
b0 P
b0 +"
1S#
1G#
1;#
1)
#240
0)
#260
bx L
bx H"
b0xxxxxxxx x
bx M
bx G"
b0xxxxxxxx u
bx N
bx F"
bx O"
b10100001 L"
bx C"
bx0000 B"
bx @"
b100000 Q"
b100000 P"
bx I
bx j"
b0xxxxxxxx ~
bx J
bx i"
b0xxxxxxxx {
bx K
bx h"
bx q"
b10100001 n"
bx e"
bx0000 d"
bx b"
b100000 s"
b100000 r"
bx F
bx .#
b0xxxxxxxx &"
bx G
bx -#
b0xxxxxxxx #"
bx H
bx ,#
bx 5#
b10100001 2#
bx )#
bx0000 (#
bx &#
b100000 7#
b100000 6#
0;#
bx B
bx 8"
bx ?#
bx C
bx 9"
bx >#
bx D
bx :"
bx =#
bx E
bx ;"
bx <#
0G#
bx >
bx Z"
bx K#
bx ?
bx ["
bx J#
bx @
bx \"
bx I#
bx A
bx ]"
bx H#
0S#
bx :
bx |"
bx W#
bx ;
bx }"
bx V#
bx <
bx ~"
bx U#
bx =
bx !#
bx T#
b1 P
b1 +"
b100 c
1)
#280
0)
#300
b101 c
1S#
1G#
1;#
1)
#320
0)
#340
0;#
0G#
0S#
b110 c
1)
#360
0)
#380
b111 c
1S#
1G#
1;#
1)
#400
0)
#420
0;#
0G#
0S#
b1000 c
1)
#440
0)
#460
b1001 c
1S#
1G#
1;#
1)
#480
0)
#500
0;#
0G#
0S#
b1 g
b1 )"
b1 -"
b0 p
b0 Q#
b0 o
b0 P#
b0 m
b0 E#
b0 l
b0 D#
b0 j
b0 9#
b0 i
b0 8#
b1 e
b0 c
1)
#520
0)
#540
b1 c
b10 P
b10 +"
1S#
b0 [#
b0 Y#
1G#
b0 N#
b0 L#
1;#
b0 A#
b0 @#
1)
#560
0)
#580
b10010011 L
b10010011 H"
b111001 x
b111001 M
b111001 G"
b11001100 u
b11001100 N
b11001100 F"
b11110101 O"
b10100001 L"
b10010101 C"
b10110000 B"
b11001011 @"
b100000 Q"
b100000 P"
b10010011 I
b10010011 j"
b111001 ~
b111001 J
b111001 i"
b11001100 {
b11001100 K
b11001100 h"
b11110101 q"
b10100001 n"
b10010101 e"
b10110000 d"
b11001011 b"
b100000 s"
b100000 r"
b10010011 F
b10010011 .#
b111001 &"
b111001 G
b111001 -#
b11001100 #"
b11001100 H
b11001100 ,#
b11110101 5#
b10100001 2#
b10010101 )#
b10110000 (#
b11001011 &#
b100000 7#
b100000 6#
0;#
b0 B
b0 8"
b0 ?#
b0 C
b0 9"
b0 >#
b0 D
b0 :"
b0 =#
b0 E
b0 ;"
b0 <#
0G#
b0 >
b0 Z"
b0 K#
b0 ?
b0 ["
b0 J#
b0 @
b0 \"
b0 I#
b0 A
b0 ]"
b0 H#
0S#
b0 :
b0 |"
b0 W#
b0 ;
b0 }"
b0 V#
b0 <
b0 ~"
b0 U#
b0 =
b0 !#
b0 T#
b10 c
1)
#600
0)
#620
b11 c
1S#
1G#
1;#
1)
#640
0)
#660
0;#
0G#
0S#
b100 c
1)
#680
0)
#700
b101 c
1S#
1G#
1;#
1)
#720
0)
#740
0;#
0G#
0S#
b110 c
1)
#760
0)
#780
b111 c
1S#
1G#
1;#
1)
#800
0)
#820
0;#
0G#
0S#
b1000 c
1)
#840
0)
#860
b1001 c
1S#
1G#
1;#
1)
#880
0)
#900
0;#
0G#
0S#
b10 g
b10 )"
b10 -"
b1 p
b1 Q#
b1 m
b1 E#
b1 j
b1 9#
b10 e
b0 c
1)
#920
0)
#940
b1 c
b11 P
b11 +"
1S#
1G#
1;#
1)
#960
0)
#980
b10010101 L
b10010101 H"
b1011001 x
b1011001 M
b1011001 G"
b1110 u
b1110 N
b1110 F"
b11110111 O"
b10100001 L"
b10010111 C"
b11010000 B"
b1101 @"
b100000 Q"
b100000 P"
b10101 I
b10101 j"
b11101100 {
b11101100 K
b11101100 h"
b1110111 q"
b10100001 n"
b10111 e"
b10110000 d"
b11101011 b"
b100000 s"
b100000 r"
b10000100 F
b10000100 .#
b1101001 &"
b1101001 G
b1101001 -#
b11101111 #"
b11101111 H
b11101111 ,#
b11100110 5#
b10100001 2#
b10000110 )#
b11100000 (#
b11101110 &#
b100000 7#
b100000 6#
0;#
b1 B
b1 8"
b1 ?#
b1 C
b1 9"
b1 >#
0G#
b1 >
b1 Z"
b1 K#
b1 @
b1 \"
b1 I#
0S#
b1 ;
b1 }"
b1 V#
b1 =
b1 !#
b1 T#
b10 c
1)
#1000
0)
#1020
b11 c
b1 V
b1 w
b1 \#
1S#
1G#
1;#
1)
#1040
0)
#1060
0;#
0G#
0S#
b100 c
1)
#1080
0)
#1100
b101 c
1S#
1G#
1;#
1)
#1120
0)
#1140
0;#
0G#
0S#
b110 c
1)
#1160
0)
#1180
b111 c
1S#
1G#
1;#
1)
#1200
0)
#1220
0;#
0G#
0S#
b1000 c
1)
#1240
0)
#1260
b1001 c
1S#
1G#
1;#
1)
#1280
0)
#1300
0;#
0G#
0S#
b11 g
b11 )"
b11 -"
b10 p
b10 Q#
b10 m
b10 E#
b10 j
b10 9#
b11 e
b0 c
1)
#1320
0)
#1340
b1 c
b100 P
b100 +"
1S#
1G#
1;#
1)
#1360
0)
#1380
b1110111 L
b1110111 H"
b11101110 u
b11101110 N
b11101110 F"
b11011001 O"
b10100001 L"
b1111001 C"
b11010000 B"
b11101101 @"
b100000 Q"
b100000 P"
b1110111 I
b1110111 j"
b1100 {
b1100 K
b1100 h"
b11011001 q"
b10100001 n"
b1111001 e"
b10110000 d"
b1011 b"
b100000 s"
b100000 r"
b10010101 F
b10010101 .#
b1111001 &"
b1111001 G
b1111001 -#
b11110000 #"
b11110000 H
b11110000 ,#
b11110111 5#
b10100001 2#
b10010111 )#
b11110000 (#
b11101111 &#
b100000 7#
b100000 6#
0;#
b10 B
b10 8"
b10 ?#
b10 C
b10 9"
b10 >#
0G#
b10 >
b10 Z"
b10 K#
b10 @
b10 \"
b10 I#
0S#
b10 ;
b10 }"
b10 V#
b10 =
b10 !#
b10 T#
b10 c
1)
#1400
0)
#1420
b11 c
b1 T
b1 }
b1 ^#
b100 V
b100 w
b100 \#
1S#
1G#
1;#
1)
#1440
0)
#1460
0;#
0G#
0S#
b100 c
1)
#1480
0)
#1500
b101 c
1S#
1G#
1;#
1)
#1520
0)
#1540
0;#
0G#
0S#
b110 c
1)
#1560
0)
#1580
b111 c
1S#
1G#
1;#
1)
#1600
0)
#1620
0;#
0G#
0S#
b1000 c
1)
#1640
0)
#1660
b1001 c
1S#
1G#
1;#
1)
#1680
0)
#1700
0;#
0G#
0S#
b100 g
b100 )"
b100 -"
b11 p
b11 Q#
b11 m
b11 E#
b11 j
b11 9#
b100 e
b0 c
1)
#1720
0)
#1740
b1 c
b101 P
b101 +"
1S#
1G#
1;#
1)
#1760
0)
#1780
b10011001 L
b10011001 H"
b1111001 x
b1111001 M
b1111001 G"
b110000 u
b110000 N
b110000 F"
b11111011 O"
b10100001 L"
b10011011 C"
b11110000 B"
b101111 @"
b100000 Q"
b100000 P"
b1011001 I
b1011001 j"
b101100 {
b101100 K
b101100 h"
b10111011 q"
b10100001 n"
b1011011 e"
b10110000 d"
b101011 b"
b100000 s"
b100000 r"
b1100110 F
b1100110 .#
b10101001 &"
b10101001 G
b10101001 -#
b10010011 #"
b10010011 H
b10010011 ,#
b11001000 5#
b10100001 2#
b1101000 )#
b100000 (#
b10010010 &#
b100000 7#
b100000 6#
0;#
b11 B
b11 8"
b11 ?#
b11 C
b11 9"
b11 >#
0G#
b11 >
b11 Z"
b11 K#
b11 @
b11 \"
b11 I#
0S#
b11 ;
b11 }"
b11 V#
b11 =
b11 !#
b11 T#
b10 c
1)
#1800
0)
#1820
b11 c
b1 V
b1 w
b1 \#
1S#
1G#
1;#
1)
#1840
0)
#1860
0;#
0G#
0S#
b100 c
1)
#1880
0)
#1900
b101 c
1S#
1G#
1;#
1)
#1920
0)
#1940
0;#
0G#
0S#
b110 c
1)
#1960
0)
#1980
b111 c
1S#
1G#
1;#
1)
#2000
0)
#2020
0;#
0G#
0S#
b1000 c
1)
#2040
0)
#2060
b1001 c
1S#
1G#
1;#
1)
#2080
0)
#2100
0;#
0G#
0S#
b101 g
b101 )"
b101 -"
b100 p
b100 Q#
b100 m
b100 E#
b100 j
b100 9#
b101 e
b0 c
1)
#2120
0)
#2140
b1 c
b110 P
b110 +"
1S#
1G#
1;#
1)
#2160
0)
